#-----------------------------------------------------------
# Webtalk v2019.1 (64-bit)
# SW Build 2552052 on Fri May 24 14:47:09 MDT 2019
# IP Build 2548770 on Fri May 24 18:01:18 MDT 2019
# Start of session at: Wed Dec 25 07:13:33 2019
# Process ID: 28302
# Current directory: /home/shubham/sobel_final/sobel_final.sim/sim_1/impl/func/xsim
# Command line: wbtcv -mode batch -source /home/shubham/sobel_final/sobel_final.sim/sim_1/impl/func/xsim/xsim.dir/sobel_top_func_impl/webtalk/xsim_webtalk.tcl -notrace
# Log file: /home/shubham/sobel_final/sobel_final.sim/sim_1/impl/func/xsim/webtalk.log
# Journal file: /home/shubham/sobel_final/sobel_final.sim/sim_1/impl/func/xsim/webtalk.jou
#-----------------------------------------------------------
source /home/shubham/sobel_final/sobel_final.sim/sim_1/impl/func/xsim/xsim.dir/sobel_top_func_impl/webtalk/xsim_webtalk.tcl -notrace
INFO: [Common 17-186] '/home/shubham/sobel_final/sobel_final.sim/sim_1/impl/func/xsim/xsim.dir/sobel_top_func_impl/webtalk/usage_statistics_ext_xsim.xml' has been successfully sent to Xilinx on Wed Dec 25 07:13:37 2019. For additional details about this file, please refer to the WebTalk help file at /tools/Xilinx/Vivado/2019.1/doc/webtalk_introduction.html.
INFO: [Common 17-206] Exiting Webtalk at Wed Dec 25 07:13:37 2019...
