verilog xil_defaultlib  \
"../../../ipstatic/hdl/verilog/sobel_filter_fadd_32ns_32ns_32_9_full_dsp_1.v" \
"../../../ipstatic/hdl/verilog/sobel_filter_faddfsub_32ns_32ns_32_9_full_dsp_1.v" \
"../../../ipstatic/hdl/verilog/sobel_filter_fcmp_32ns_32ns_1_2_1.v" \
"../../../ipstatic/hdl/verilog/sobel_filter_fdiv_32ns_32ns_32_17_1.v" \
"../../../ipstatic/hdl/verilog/sobel_filter_fmul_32ns_32ns_32_5_max_dsp_1.v" \
"../../../ipstatic/hdl/verilog/sobel_filter_LineBuffer_V.v" \
"../../../ipstatic/hdl/verilog/sobel_filter_result_lb_V.v" \
"../../../ipstatic/hdl/verilog/sobel_filter_sitofp_32s_32_6_1.v" \
"../../../ipstatic/hdl/verilog/sq_rt.v" \
"../../../ipstatic/hdl/verilog/sobel_filter.v" \

verilog xil_defaultlib "glbl.v"

nosort
