verilog xil_defaultlib  \
"../../../ipstatic/hdl/verilog/sobel_filter_dsqrt_64ns_64ns_64_57_1.v" \
"../../../ipstatic/hdl/verilog/sobel_filter_fadd_32ns_32ns_32_9_full_dsp_1.v" \
"../../../ipstatic/hdl/verilog/sobel_filter_fmul_32ns_32ns_32_5_max_dsp_1.v" \
"../../../ipstatic/hdl/verilog/sobel_filter_fpext_32ns_64_2_1.v" \
"../../../ipstatic/hdl/verilog/sobel_filter_LineBuffer_V.v" \
"../../../ipstatic/hdl/verilog/sobel_filter_result_lb_V.v" \
"../../../ipstatic/hdl/verilog/sobel_filter_sitofp_32s_32_6_1.v" \
"../../../ipstatic/hdl/verilog/sobel_filter_uitofp_32ns_32_6_1.v" \
"../../../ipstatic/hdl/verilog/sobel_filter.v" \

verilog xil_defaultlib "glbl.v"

nosort
