vhdl xil_defaultlib  \
"../../../ipstatic/hdl/ip/sobel_filter_ap_dsqrt_55_no_dsp_64.vhd" \
"../../../ipstatic/hdl/ip/sobel_filter_ap_fpext_0_no_dsp_32.vhd" \
"../../../ipstatic/hdl/ip/sobel_filter_ap_sitofp_4_no_dsp_32.vhd" \
"../../../ipstatic/hdl/ip/sobel_filter_ap_uitofp_4_no_dsp_32.vhd" \
"../../../../../sobel_integ_design/sobel_filter_0_16/sim/sobel_filter_0.vhd" \

nosort
