Design Route Status
                                               :      # nets :
   ------------------------------------------- : ----------- :
   # of logical nets.......................... :       51186 :
       # of nets not needing routing.......... :       16314 :
           # of internally routed nets........ :       16218 :
           # of nets with no loads............ :          96 :
       # of routable nets..................... :       34872 :
           # of fully routed nets............. :       34872 :
       # of nets with routing errors.......... :           0 :
   ------------------------------------------- : ----------- :

