verilog xil_defaultlib  \
"../../../ipstatic/hdl/verilog/pow_generic_double_s.v" \
"../../../ipstatic/hdl/verilog/pow_generic_double_s_pow_reduce_anonymo.v" \
"../../../ipstatic/hdl/verilog/pow_generic_double_s_pow_reduce_anonymo_9.v" \
"../../../ipstatic/hdl/verilog/pow_generic_double_s_pow_reduce_anonymo_12.v" \
"../../../ipstatic/hdl/verilog/pow_generic_double_s_pow_reduce_anonymo_13.v" \
"../../../ipstatic/hdl/verilog/pow_generic_double_s_pow_reduce_anonymo_14.v" \
"../../../ipstatic/hdl/verilog/pow_generic_double_s_pow_reduce_anonymo_15.v" \
"../../../ipstatic/hdl/verilog/pow_generic_double_s_pow_reduce_anonymo_16.v" \
"../../../ipstatic/hdl/verilog/pow_generic_double_s_pow_reduce_anonymo_17.v" \
"../../../ipstatic/hdl/verilog/pow_generic_double_s_pow_reduce_anonymo_18.v" \
"../../../ipstatic/hdl/verilog/pow_generic_double_s_pow_reduce_anonymo_19.v" \
"../../../ipstatic/hdl/verilog/pow_generic_double_s_pow_reduce_anonymo_20.v" \
"../../../ipstatic/hdl/verilog/pow_generic_double_s_pow_reduce_anonymo_21.v" \
"../../../ipstatic/hdl/verilog/sobel_filter_dsqrt_64ns_64ns_64_57_1.v" \
"../../../ipstatic/hdl/verilog/sobel_filter_fpext_32ns_64_2_1.v" \
"../../../ipstatic/hdl/verilog/sobel_filter_LineBuffer_V.v" \
"../../../ipstatic/hdl/verilog/sobel_filter_mac_muladd_16ns_16s_19s_31_3_1.v" \
"../../../ipstatic/hdl/verilog/sobel_filter_mul_40ns_40ns_80_6_1.v" \
"../../../ipstatic/hdl/verilog/sobel_filter_mul_43ns_36ns_79_6_1.v" \
"../../../ipstatic/hdl/verilog/sobel_filter_mul_49ns_44ns_93_6_1.v" \
"../../../ipstatic/hdl/verilog/sobel_filter_mul_50ns_50ns_100_6_1.v" \
"../../../ipstatic/hdl/verilog/sobel_filter_mul_54s_6ns_54_6_1.v" \
"../../../ipstatic/hdl/verilog/sobel_filter_mul_71ns_4ns_75_6_1.v" \
"../../../ipstatic/hdl/verilog/sobel_filter_mul_72ns_13s_83_6_1.v" \
"../../../ipstatic/hdl/verilog/sobel_filter_mul_73ns_6ns_79_6_1.v" \
"../../../ipstatic/hdl/verilog/sobel_filter_mul_77ns_6ns_83_6_1.v" \
"../../../ipstatic/hdl/verilog/sobel_filter_mul_80ns_12s_90_6_1.v" \
"../../../ipstatic/hdl/verilog/sobel_filter_mul_82ns_6ns_88_6_1.v" \
"../../../ipstatic/hdl/verilog/sobel_filter_mul_83ns_6ns_89_6_1.v" \
"../../../ipstatic/hdl/verilog/sobel_filter_mul_87ns_6ns_93_6_1.v" \
"../../../ipstatic/hdl/verilog/sobel_filter_mul_92ns_6ns_98_6_1.v" \
"../../../ipstatic/hdl/verilog/sobel_filter_result_lb_V.v" \
"../../../ipstatic/hdl/verilog/sobel_filter_sitofp_32s_32_6_1.v" \
"../../../ipstatic/hdl/verilog/sobel_filter_uitofp_32ns_32_6_1.v" \
"../../../ipstatic/hdl/verilog/sobel_filter.v" \

verilog xil_defaultlib "glbl.v"

nosort
